eBird Status and Trends predictive habitat associations — ebirdst_habitat • ebirdst
…
# \donttest{
# download example data
path <- ebirdst_download("example_data", tifs_only = FALSE)
#> Data already exists, use force = TRUE to re-download.
# or get the path if you already have the data downloaded
path <- get_species_path("example_data")

# define a spatial extent to calculate ppms over
bb_vec <- c(xmin = -86, xmax = -83, ymin = 42.5, ymax = 44.5)
e <- ebirdst_extent(bb_vec)

# compute habitat associations
habitat <- ebirdst_habitat(path = path, ext = e)
print(habitat)
#> # A tibble: 1,040 × 5
#>    predictor                        date importance prob_pos_slope direction
#>  * <chr>                           <dbl>      <dbl>          <dbl>     <dbl>
#>  1 mcd12q1_lccs1_fs_c1_1500_pland 0.0096   0.000912             NA        NA
#>  2 mcd12q1_lccs1_fs_c1_1500_pland 0.0288   0.000959             NA        NA
#>  3 mcd12q1_lccs1_fs_c1_1500_pland 0.0481   0.00101              NA        NA
#>  4 mcd12q1_lccs1_fs_c1_1500_pland 0.0673   0.00107              NA        NA
#>  5 mcd12q1_lccs1_fs_c1_1500_pland 0.0865   0.00114              NA        NA
#>  6 mcd12q1_lccs1_fs_c1_1500_pland 0.106    0.00120              NA        NA
#>  7 mcd12q1_lccs1_fs_c1_1500_pland 0.125    0.00126              NA        NA
#>  8 mcd12q1_lccs1_fs_c1_1500_pland 0.144    0.00132              NA        NA
#>  9 mcd12q1_lccs1_fs_c1_1500_pland 0.164    0.00136              NA        NA
#> 10 mcd12q1_lccs1_fs_c1_1500_pland 0.183    0.00139              NA        NA
#> # … with 1,030 more rows
…
