Plot predictor importance (PI) box plots — plot_pis • ebirdst
…
top_pred
#> # A tibble: 49 × 3
#>    stixel_id      predictor            importance
#>    <chr>          <fct>                     <dbl>
#>  1 20-132.8-PR221 CCI                       0.756
#>  2 20-132.8-PR221 Day                       0.225
#>  3 20-132.8-PR221 Eastness 90m Median       0.883
#>  4 20-132.8-PR221 Effort Distance (km)      0.324
#>  5 20-132.8-PR221 Effort Hours              1.18 
#>  6 20-132.8-PR221 Nighttime Lights          0.378
#>  7 20-132.8-PR221 Northness 1km Median      0.852
#>  8 20-132.8-PR221 Northness 90m SD          0.643
#>  9 20-132.8-PR221 Open Forests              1.13 
#> 10 20-132.8-PR221 Sparse Forests            0.476
#> # … with 39 more rows
…
